Wave,Archetype,Delay,Count,SpawnDirection,DirectionOffset,RotationAngle,StaggerTime,Wiggle,AngleAddition
Wave,Archetype,Delay(seconds),Enemy Count,Spawn Direction(Degrees),Spawn Direction Offset(Degrees),Rotation Angle(Degrees),Enemy Stagger Time(seconds),Rotation Angle Max Wiggle(Degrees),Angle Addition Per Spawn(Degrees)
,CometEnemy,1,1,80,,225,,5,
,CometEnemy,2,1,65,,225,,5,
,CometEnemy,3,1,45,,225,,5,
Wave,Archetype,Delay(seconds),Enemy Count,Spawn Direction(Degrees),Spawn Direction Offset(Degrees),Rotation Angle(Degrees),Enemy Stagger Time(seconds),Rotation Angle Max Wiggle(Degrees),Angle Addition Per Spawn(Degrees)
,CometEnemy,0,2,140,,0,0.5,10,
,CometEnemy_HealthPickup,1,1,185,,0,,10,
,CometEnemy,1.5,2,185,,0,0.5,10,
,CometEnemy,2,2,200,,0,0.5,10,
Wave,Archetype,Delay(seconds),Enemy Count,Spawn Direction(Degrees),Spawn Direction Offset(Degrees),Rotation Angle(Degrees),Enemy Stagger Time(seconds),Rotation Angle Max Wiggle(Degrees),Angle Addition Per Spawn(Degrees)
,CometEnemy,0,5,315,,,0.25,5,5
,CometEnemy,4,10,0,,,0.25,5,5
,CometEnemy,10,15,45,,,0.25,5,5
Wave,Archetype,Delay(seconds),Enemy Count,Spawn Direction(Degrees),Spawn Direction Offset(Degrees),Rotation Angle(Degrees),Enemy Stagger Time(seconds),Rotation Angle Max Wiggle(Degrees),Angle Addition Per Spawn(Degrees)
,HomingEnemy,0,1,135,,,,,
,HomingEnemy,3,1,90,,,,,
,HomingEnemy,6,1,45,,,,,
Wave,Archetype,Delay(seconds),Enemy Count,Spawn Direction(Degrees),Spawn Direction Offset(Degrees),Rotation Angle(Degrees),Enemy Stagger Time(seconds),Rotation Angle Max Wiggle(Degrees),Angle Addition Per Spawn(Degrees)
,HomingEnemy,0,6,,,,0.75,,
Wave,Archetype,Delay(seconds),Enemy Count,Spawn Direction(Degrees),Spawn Direction Offset(Degrees),Rotation Angle(Degrees),Enemy Stagger Time(seconds),Rotation Angle Max Wiggle(Degrees),Angle Addition Per Spawn(Degrees)
,CometEnemy,0,2,280,,,0.75,10,
,HomingEnemy,1.5,2,330,,,0.5,,
,CometEnemy_HealthPickup,1.5,2,280,,,0.75,30,
Wave,Archetype,Delay(seconds),Enemy Count,Spawn Direction(Degrees),Spawn Direction Offset(Degrees),Rotation Angle(Degrees),Enemy Stagger Time(seconds),Rotation Angle Max Wiggle(Degrees),Angle Addition Per Spawn(Degrees)
,CometEnemy,0,8,160,,,1,10,5
,HomingEnemy,1.5,8,250,,,1,,
,CometEnemy_HealthPickup,3,2,130,,,,,
,CometEnemy_HealthPickup,4,2,180,,,,,
Wave,Archetype,Delay(seconds),Enemy Count,Spawn Direction(Degrees),Spawn Direction Offset(Degrees),Rotation Angle(Degrees),Enemy Stagger Time(seconds),Rotation Angle Max Wiggle(Degrees),Angle Addition Per Spawn(Degrees)
,KitingEnemy,0,1,70,,,,,
,KitingEnemy,2,2,130,,,,,
Wave,Archetype,Delay(seconds),Enemy Count,Spawn Direction(Degrees),Spawn Direction Offset(Degrees),Rotation Angle(Degrees),Enemy Stagger Time(seconds),Rotation Angle Max Wiggle(Degrees),Angle Addition Per Spawn(Degrees)
,KitingEnemy,0,2,150,,,0.5,,
,CometEnemy_HealthPickup,1,2,200,,,0.5,20,
,KitingEnemy_ArcShot_SpreadPickup,4,1,135,,,,,
Wave,Archetype,Delay(seconds),Enemy Count,Spawn Direction(Degrees),Spawn Direction Offset(Degrees),Rotation Angle(Degrees),Enemy Stagger Time(seconds),Rotation Angle Max Wiggle(Degrees),Angle Addition Per Spawn(Degrees)
,CometEnemy,0,8,200,,,0.25,10,5
,CometEnemy,4,12,280,,,0.25,10,5
,CometEnemy_HealthPickup,6,2,230,,,2,10,2
,CometEnemy,10,18,150,,,0.25,10,5
Wave,Archetype,Delay(seconds),Enemy Count,Spawn Direction(Degrees),Spawn Direction Offset(Degrees),Rotation Angle(Degrees),Enemy Stagger Time(seconds),Rotation Angle Max Wiggle(Degrees),Angle Addition Per Spawn(Degrees)
,CometEnemy,0,2,70,,,1,20,
,CometEnemy_Medium,1.5,1,350,,,,,
Wave,Archetype,Delay(seconds),Enemy Count,Spawn Direction(Degrees),Spawn Direction Offset(Degrees),Rotation Angle(Degrees),Enemy Stagger Time(seconds),Rotation Angle Max Wiggle(Degrees),Angle Addition Per Spawn(Degrees)
,CometEnemy,2,3,,150,,,20,
,KitingEnemy_Basic_HealthPickup,3,2,,315,,,20,
,CometEnemy_Medium,5,2,,70,,,,
,CometEnemy_HealthPickup,0,2,,0,,,20,
Wave,Archetype,Delay(seconds),Enemy Count,Spawn Direction(Degrees),Spawn Direction Offset(Degrees),Rotation Angle(Degrees),Enemy Stagger Time(seconds),Rotation Angle Max Wiggle(Degrees),Angle Addition Per Spawn(Degrees)
,CometEnemy,0,8,,,,2,30,
,KitingEnemy,3,3,180,,,4,,
,HomingEnemy_Tank,6,2,0,,,3,,
Wave,Archetype,Delay(seconds),Enemy Count,Spawn Direction(Degrees),Spawn Direction Offset(Degrees),Rotation Angle(Degrees),Enemy Stagger Time(seconds),Rotation Angle Max Wiggle(Degrees),Angle Addition Per Spawn(Degrees)
,CometEnemy,0,3,,45,,2,30,
,KitingEnemy_RadialShot_BombPickup,2,1,,,,,,
Wave,Archetype,Delay(seconds),Enemy Count,Spawn Direction(Degrees),Spawn Direction Offset(Degrees),Rotation Angle(Degrees),Enemy Stagger Time(seconds),Rotation Angle Max Wiggle(Degrees),Angle Addition Per Spawn(Degrees)
,CometEnemy,0,4,30,,,0.5,20,
,CometEnemy,0,12,,30,,1.5,20,
,HomingEnemy,4,6,,,,1,,
,HomingEnemy_Tank,6,2,,,,1,,
Wave,Archetype,Delay(seconds),Enemy Count,Spawn Direction(Degrees),Spawn Direction Offset(Degrees),Rotation Angle(Degrees),Enemy Stagger Time(seconds),Rotation Angle Max Wiggle(Degrees),Angle Addition Per Spawn(Degrees)
,CometEnemy_Giant,0,1,300,,,,,
,CometEnemy_HealthPickup,3,4,,45,,1.5,30,
Wave,Archetype,Delay(seconds),Enemy Count,Spawn Direction(Degrees),Spawn Direction Offset(Degrees),Rotation Angle(Degrees),Enemy Stagger Time(seconds),Rotation Angle Max Wiggle(Degrees),Angle Addition Per Spawn(Degrees)
,KitingEnemy_ArcShot_SpreadPickup,0,2,,90,,3,,
,HomingEnemy,8,20,,275,,0.75,,
,CometEnemy_Medium,4,2,,70,,,30,
,KitingEnemy_RadialShot_BombPickup,24,2,,,,,,
Wave,Archetype,Delay(seconds),Enemy Count,Spawn Direction(Degrees),Spawn Direction Offset(Degrees),Rotation Angle(Degrees),Enemy Stagger Time(seconds),Rotation Angle Max Wiggle(Degrees),Angle Addition Per Spawn(Degrees)
,CometEnemy_Giant,0,3,,135,,10,90,
,KitingEnemy,1,5,,45,,1.2,,
,KitingEnemy_Basic_HealthPickup,2,2,,225,,3,,
,HomingEnemy,10,10,,135,,1.5,,
,KitingEnemy_ArcShot_SpreadPickup,12,2,,315,,2,,
,CometEnemy_HealthPickup,15,2,,180,,3,75,
,KitingEnemy_RadialShot_BombPickup,30,2,,140,,,,
,CometEnemy_Medium,32,8,,20,,,30,
,HomingEnemy_Tank,34,4,,250,,,,
,CometEnemy,31,10,,90,,,30,
