{
  "AsteroidEnemy": {
    "Name": "AsteroidEnemy",
    "Components": {
      "Renderable": {
        "Mesh": "AsteroidOne",
        "Effect": "Test",
        "Material": "Stone"
      },
      "Transform": {
        "position": [ 0, 5, 0 ],
        "scale": [ 3, 3, 3 ],
        "rotation": [ 0, 0, 0 ]
      },
      "RigidBody": {
        "mass": 1,
        "gravity_magnitude": 0.0
      },
      "WorldWrapper":{
      },
      "Orientation": { 
      },
      "Collision_Sphere": {
        "radius": 0.5,
        "collision_id": 3
      },
      "MoveInDirection": {
        "Speed": 1
      },
      "DirectionData": {
        "DirectionAngle": 270.0
      },
      "KeepRotating": {
        "RotSpeed": 2.0,
        "RotateClockwise": 0.0
      }

    }
  }
}