{
  "HomingEnemy": {
    "Name": "HomingEnemy",
    "Components": {
      "Renderable": {
        "Mesh": "Wasp",
        "Material": "White"
      },
      "Transform": {
        "position": [ 5, 5, 0 ],
        "scale": [ 0.2, 0.2, 0.2 ],
        "rotation": [ -90, 180, 0 ]
      },
      "RigidBody": {
        "mass": 1,
        "gravity_magnitude": 0.0
      },
      "Orientation": {
      },
      "Collision_Sphere": {
        "radius": 0.7,
        "collision_id": 2
      },
      "RotateTowardsTarget": {
        "TargetName": "PlayerShip",
        "MaxRotation": 180.0
      },
      "WorldWrapper":{
      },
      "MoveForward": {
        "Speed": 5
      },
      "Health":{
        "Health": 1,
        "PlayUponDeath" : "Explosion_Big_01"
      },
      "Audio":{
      },
      "EnemyComponent" : {
        "Damage": 1
      },
      "Object2D" : {},
      "Actions" : {},
      "DamageFeedback":{
        "FlashColor":[1,0.2,0.2,1]
      },
      "ExplodeOnDeath":{
        "ExplosionArchetype":"Explosion1"
      }
    }
  },
  "HomingEnemy_Tank": {
    "Name": "HomingEnemy_Tank",
    "Components": {
      "Renderable": {
        "Mesh": "Wasp",
        "Material": "White"
      },
      "Transform": {
        "position": [ 5, 5, 0 ],
        "scale": [ 0.4, 0.4, 0.4 ],
        "rotation": [ -90, 180, 0 ]
      },
      "RigidBody": {
        "mass": 1,
        "gravity_magnitude": 0.0
      },
      "Orientation": {
      },
      "Collision_Sphere": {
        "radius": 1.4,
        "collision_id": 2
      },
      "RotateTowardsTarget": {
        "TargetName": "PlayerShip",
        "MaxRotation": 180.0
      },
      "WorldWrapper":{
      },
      "MoveForward": {
        "Speed": 3
      },
      "Health":{
        "Health": 4,
        "PlayUponDeath" : "Explosion_Big_01"
      },
      "Audio":{
      },
      "EnemyComponent" : {
        "Damage": 1
      },
      "Object2D" : {},
      "Actions" : {},
      "DamageFeedback":{
        "FlashColor":[1,0.2,0.2,1]
      },
      "ExplodeOnDeath":{
        "ExplosionArchetype":"Explosion1"
      }
    }
  },
  "HomingEnemy_BombPickup": {
    "Name": "HomingEnemy",
    "Components": {
      "Renderable": {
        "Mesh": "Wasp",
        "Material": "White",
        "Tint" : [0.3, 1, 0.3]
      },
      "Transform": {
        "position": [ 5, 5, 0 ],
        "scale": [ 0.3, 0.3, 0.3 ],
        "rotation": [ -90, 180, 0 ]
      },
      "RigidBody": {
        "mass": 1,
        "gravity_magnitude": 0.0
      },
      "Orientation": {
      },
      "Collision_AABB": {
        "collision_id": 2
      },
      "RotateTowardsTarget": {
        "TargetName": "PlayerShip",
        "MaxRotation": 180.0
      },
      "WorldWrapper":{

      },
      "MoveForward": {
        "Speed": 10
      },
      "Health":{
        "Health": 1,
        "PlayUponDeath" : "Explosion_Big_01"
      },
      "SpawnOnDeath": {
        "WhatToSpawn": "BombShotCollectable"
      },
      "Audio":{
      },
      "EnemyComponent" : {
        "Damage": 1
      },
      "Object2D" : {},
      "Actions" : {},
      "DamageFeedback":{
        "FlashColor":[1,0.2,0.2,1]
      },
      "ExplodeOnDeath":{
        "ExplosionArchetype":"Explosion1"
      }
    }
  },
  "HomingEnemy_SpreadPickup": {
    "Name": "HomingEnemy",
    "Components": {
      "Renderable": {
        "Mesh": "Wasp",
        "Material": "White",
        "Tint" : [0.3, 0.3, 1]
      },
      "Transform": {
        "position": [ 5, 5, 0 ],
        "scale": [ 0.3, 0.3, 0.3 ],
        "rotation": [ -90, 180, 0 ]
      },
      "RigidBody": {
        "mass": 1,
        "gravity_magnitude": 0.0
      },
      "Orientation": {
      },
      "Collision_AABB": {
        "collision_id": 2
      },
      "RotateTowardsTarget": {
        "TargetName": "PlayerShip",
        "MaxRotation": 180.0
      },
      "WorldWrapper":{

      },
      "MoveForward": {
        "Speed": 10
      },
      "Health":{
        "Health": 1,
        "PlayUponDeath" : "Explosion_Big_01"
      },
      "SpawnOnDeath": {
        "WhatToSpawn": "SpreadShotCollectable"
      },
      "Audio":{
      },
      "EnemyComponent" : {
        "Damage": 1
      },
      "Object2D" : {},
      "Actions" : {},
      "DamageFeedback":{
        "FlashColor":[1,0.2,0.2,1]
      },
      "ExplodeOnDeath":{
        "ExplosionArchetype":"Explosion1"
      }
    }
  }  
}
