{
  "HUDSpace": {
    "Name":"HUD",
    "Components": {
      "AwesomiumSpace": {
        "URL": "file://$(working)/Menus/hud.html"
      },
      "ShaderLoader": {
        "shaders": [
          {
            "type": "vertex",
            "file": "Shaders\\ui.vs.glsl"
          },
          {
            "type": "fragment",
            "file": "Shaders\\ui.fs.glsl"
          }
        ],
        "effects": [
          {
            "name": "awesomium",
            "vertex_shader": "Shaders\\ui.vs.glsl",
            "fragment_shader": "Shaders\\ui.fs.glsl",
            "type": "screen"
          }
        ]
      },
      "SpaceUpdater": {},
    }
  }
      
}

