{
  "PlayerSpawner":
  {
    "Transform": { },
    "Spawner":
    {
      "Archetype":"PlayerRoot",
      "Active":1
    }
  },
  "HyperGate":
  {
    "Transform": { },
    "Collision_Sphere": { "collision_id" : 65 },
    "HyperspacePortal":
    {

    }
  }
}