{
  "KitingEnemy": {
    "Name": "KitingEnemy",
    "Components": {
      "Renderable": {
        "Mesh": "CapitalShip",
        "Material": "CapitalShip"
      },
      "Transform": {
        "position": [ -5, 5, 0 ],
        "scale": [ 1.5, 1.5, 1 ],
        "rotation": [ -90, 0, 180 ]
      },
      "RigidBody": {
        "mass": 1,
        "gravity_magnitude": 0.0
      },
      "Orientation": {
      },
      "Collision_OBB": {
        "half_width": 0.75,
        "half_height": 0.75,
        "half_depth": 1.5,
        "collision_id": 2
      },
      "RotateTowardsTarget": {
        "TargetName": "PlayerShip",
        "MaxRotation": 180.0
      },
      "WorldWrapper":{

      },
      "KiteTarget": {
        "TargetName": "PlayerShip",
        "AdvanceSpeed": 3.0,
        "RetreatSpeed": 5.0,
        "KiteDist": 6.0,
        "KiteBuffer": 1.0
      },
      "ShootForward": {
        "Bullet": "EnemyBullet",
        "BulletSpeed": 20.0,
        "FireRate": 1,
        "OffsetDist": 1.0
      },
      "Health": {
        "Health": 2,
        "PlayUponDeath" : "Explosion_Big_01"
      },
      "Audio":{},
      "EnemyComponent" : {
        "Damage": 1
      },
      "Object2D" : {},
      "Actions":{ },
      "DamageFeedback":{ "FlashDuration":0.08 },
      "ExplodeOnDeath":{
        "ExplosionArchetype":"Explosion1"
      }
    }
  },
  "KitingEnemy_BombPickup": {
    "Name": "KitingEnemy",
    "Components": {
      "Renderable": {
        "Mesh": "CapitalShip",
        "Material": "CapitalShip",
        "Tint" : [0.6, 1, 0.6]
      },
      "Transform": {
        "position": [ -5, 5, 0 ],
        "scale": [ 1.5, 1.5, 1 ],
        "rotation": [ -90, 0, 180 ]
      },
      "RigidBody": {
        "mass": 1,
        "gravity_magnitude": 0.0
      },
      "Orientation": {
      },
      "Collision_AABB": {
        "collision_id": 2
      },
      "RotateTowardsTarget": {
        "TargetName": "PlayerShip",
        "MaxRotation": 180.0
      },
      "WorldWrapper":{

      },
      "KiteTarget": {
        "TargetName": "PlayerShip",
        "AdvanceSpeed": 5.0,
        "RetreatSpeed": 5.0,
        "KiteDist": 5.0,
        "KiteBuffer": 1.0
      },
      "ShootForward": {
        "Bullet": "EnemyBullet",
        "BulletSpeed": 20.0,
        "FireRate": 2,
        "OffsetDist": 1.0
      },
      "Health": {
        "Health": 3,
        "PlayUponDeath" : "Explosion_Big_01"
      },
      "SpawnOnDeath": {
        "WhatToSpawn": "BombShotCollectable"
      },
      "Audio":{
       },
      "EnemyComponent" : {
        "Damage": 1
      },
      "Object2D" : {},
      "Actions":{ },
      "DamageFeedback":{ "FlashDuration":0.08 }
    }
  },
  "KitingEnemy_SpreadPickup": {
    "Name": "KitingEnemy",
    "Components": {
      "Renderable": {
        "Mesh": "CapitalShip",
        "Material": "CapitalShip",
        "Tint" : [0.6, 0.6, 1]
      },
      "Transform": {
        "position": [ -5, 5, 0 ],
        "scale": [ 1.5, 1.5, 1 ],
        "rotation": [ -90, 0, 180 ]
      },
      "RigidBody": {
        "mass": 1,
        "gravity_magnitude": 0.0
      },
      "Orientation": {
      },
      "Collision_AABB": {
        "collision_id": 2
      },
      "RotateTowardsTarget": {
        "TargetName": "PlayerShip",
        "MaxRotation": 180.0
      },
      "WorldWrapper":{

      },
      "KiteTarget": {
        "TargetName": "PlayerShip",
        "AdvanceSpeed": 5.0,
        "RetreatSpeed": 5.0,
        "KiteDist": 5.0,
        "KiteBuffer": 1.0
      },
      "ShootForward": {
        "Bullet": "EnemyBullet",
        "BulletSpeed": 20.0,
        "FireRate": 2,
        "OffsetDist": 1.0
      },
      "Health": {
        "Health": 3,
        "PlayUponDeath" : "Explosion_Big_01"
      },
      "SpawnOnDeath": {
        "WhatToSpawn": "SpreadShotCollectable"
      },
      "Audio":{
       },
      "EnemyComponent" : {
        "Damage": 1
      },
      "Object2D" : {},
      "Actions":{ },
      "DamageFeedback":{ "FlashDuration":0.08 }
    }
  },
  "KitingEnemy_Basic_HealthPickup": {
    "Name": "KitingEnemy_Basic_HealthPickup",
    "Components": {
      "Renderable": {
        "Mesh": "CapitalShip",
        "Material": "CapitalShip",
        "Tint" : [1, 0.35, 0.35]
      },
      "Transform": {
        "position": [ -5, 5, 0 ],
        "scale": [ 1.5, 1.5, 1 ],
        "rotation": [ -90, 0, 180 ]
      },
      "RigidBody": {
        "mass": 1,
        "gravity_magnitude": 0.0
      },
      "Orientation": {
      },
      "Collision_OBB": {
        "half_width": 0.75,
        "half_height": 0.75,
        "half_depth": 1.5,
        "collision_id": 2
      },
      "RotateTowardsTarget": {
        "TargetName": "PlayerShip",
        "MaxRotation": 180.0
      },
      "WorldWrapper":{
      },
      "KiteTarget": {
        "TargetName": "PlayerShip",
        "AdvanceSpeed": 3.0,
        "RetreatSpeed": 7.0,
        "KiteDist": 8.0,
        "KiteBuffer": 1.0
      },
      "ShootForward": {
        "Bullet": "EnemyBullet",
        "BulletSpeed": 20.0,
        "FireRate": 0.75,
        "OffsetDist": 1.0
      },
      "Health": {
        "Health": 2,
        "PlayUponDeath" : "Explosion_Big_01"
      },
      "SpawnOnDeath": {
        "WhatToSpawn": "HealthCollectable"
      },
      "Audio":{
       },
      "EnemyComponent" : {
        "Damage": 1
      },
      "Object2D" : {},
      "Actions":{ },
      "DamageFeedback":{ "FlashDuration":0.08 },
      "ExplodeOnDeath":{
        "ExplosionArchetype":"Explosion1"
      }
    }
  },
  "KitingEnemy_ArcShot_SpreadPickup": {
    "Name": "KitingEnemy_ArcShot_SpreadPickup",
    "Components": {
      "Renderable": {
        "Mesh": "CapitalShip",
        "Material": "CapitalShip",
        "Tint" : [0.6, 0.6, 1]
      },
      "Transform": {
        "position": [ -5, 5, 0 ],
        "scale": [ 1.5, 1.5, 1 ],
        "rotation": [ -90, 0, 180 ]
      },
      "RigidBody": {
        "mass": 1,
        "gravity_magnitude": 0.0
      },
      "Orientation": {
      },
      "Collision_OBB": {
        "half_width": 0.75,
        "half_height": 0.75,
        "half_depth": 1.5,
        "collision_id": 2
      },
      "RotateTowardsTarget": {
        "TargetName": "PlayerShip",
        "MaxRotation": 180.0
      },
      "WorldWrapper":{

      },
      "KiteTarget": {
        "TargetName": "PlayerShip",
        "AdvanceSpeed": 3.0,
        "RetreatSpeed": 5.0,
        "KiteDist": 6.0,
        "KiteBuffer": 1.0
      },
      "ShootArc": {
        "Bullet": "EnemyBullet",
        "BulletSpeed": 20.0,
        "FireRate": 0.75,
        "OffsetDist": 1.0,
        "FireArc": 60.0,
        "BulletCount": 3
      },
      "Health": {
        "Health": 3,
        "PlayUponDeath" : "Explosion_Big_01"
      },
      "SpawnOnDeath": {
        "WhatToSpawn": "SpreadShotCollectable"
      },
      "Audio":{
       },
      "EnemyComponent" : {
        "Damage": 1
      },
      "Object2D" : {},
      "Actions":{ },
      "DamageFeedback":{ "FlashDuration":0.08 },
      "ExplodeOnDeath":{
        "ExplosionArchetype":"Explosion1"
      }
    }
  },
  "KitingEnemy_RadialShot_BombPickup": {
    "Name": "KitingEnemy_RadialShot_BombPickup",
    "Components": {
      "Renderable": {
        "Mesh": "CapitalShip",
        "Material": "CapitalShip",
        "Tint" : [0.6, 1, 0.6]
      },
      "Transform": {
        "position": [ -5, 5, 0 ],
        "scale": [ 1.5, 1.5, 1 ],
        "rotation": [ -90, 0, 180 ]
      },
      "RigidBody": {
        "mass": 1,
        "gravity_magnitude": 0.0
      },
      "Orientation": {
      },
      "Collision_OBB": {
        "half_width": 0.75,
        "half_height": 0.75,
        "half_depth": 1.5,
        "collision_id": 2
      },
      "RotateTowardsTarget": {
        "TargetName": "PlayerShip",
        "MaxRotation": 180.0
      },
      "WorldWrapper":{

      },
      "KiteTarget": {
        "TargetName": "PlayerShip",
        "AdvanceSpeed": 3.0,
        "RetreatSpeed": 5.0,
        "KiteDist": 6.0,
        "KiteBuffer": 1.0
      },
      "ShootArc": {
        "Bullet": "EnemyBullet",
        "BulletSpeed": 20.0,
        "FireRate": 0.5,
        "OffsetDist": 1.0,
        "FireArc": 360.0,
        "BulletCount": 6
      },
      "Health": {
        "Health": 2,
        "PlayUponDeath" : "Explosion_Big_01"
      },
      "SpawnOnDeath": {
        "WhatToSpawn": "BombShotCollectable"
      },
      "Audio":{
       },
      "EnemyComponent" : {
        "Damage": 1
      },
      "Object2D" : {},
      "Actions":{ },
      "DamageFeedback":{ "FlashDuration":0.08 },
      "ExplodeOnDeath":{
        "ExplosionArchetype":"Explosion1"
      }
    }
  }
}
