{
  "Weapon": {
    "Components": {
    }
  },

  "Thrusters": {
    "Components": {
      "Transform": {
      },
      "ShipSubsystem":{},
      "ShipEngines": {
        "MaxSpeed": 75,
        "ControllerPath": "",
        "DriftFactor": 0.6
      },
      "Audio": { },
      "ParticleSystemHack" :
        {
            "EmitterAngle" : 0.0,
            "EmitterAngleOffset" : 20,
            "InitialSpeedMin" : 2, 
            "InitialSpeedMax" : 2,
            "FinalSpeedMin" : 3, 
            "FinalSpeedMax" : 3,
            "EmissionRate": 0,
            "ParticleLifetimeMin": 0.0,
            "ParticleLifetimeMax": 0.0,
            "InitialRotSpeedMin" : 360,
            "InitialRotSpeedMax" : 360,
            "FinalRotSpeedMin" : 1,
            "FinalRotSpeedMax" : 1,
            "InitialAngleMin" : 1,
            "InitialAngleMax" : 1,
            "MaxParticles" : 60,
            "IsActive" : 1,
            "RecycleParticles" : 1,
            "UseLocalCoords" : 0,
            "UseEmitterAngle" : 1,
            "InitialScaleMin" : [0.1,0.1,0.1],
            "InitialScaleMax" : [0.2,0.2,0.2],
            "FinalScaleMin" : [0.2,0.2,0.2],
            "FinalScaleMax" : [0.3,0.3,0.3],
            "InitialColorMin" : [5,5,5],
            "InitialColorMax" : [5,5,5],
            "FinalColorMin" : [1,0,0],
            "FinalColorMax" : [1,0,0],
            "Particle" : "Particle",
        }
    },
    "Children": [

    ]
  },

  "BasicCannon": {
    "Components": {
      "Transform": { },
      "ShipSubsystem": { },
      "ShipCannon": {
        "RefireRate": 0.12,
        "RefireShift": 0.0,
        "BulletSpeed": 16,
        "Inaccuracy": 0.03,
        "RecoilForce": 0.5,
        "BulletType": "Bullet",
        "WeaponType": "BasicShot"
      },
      "Orientation": { },
      "Audio": { }
    }
  },

  "BombCannon": {
    "Components": {
      "Transform": { },
      "ShipSubsystem": { },
      "ShipCannon": {
        "RefireRate": 1.2,
        "RefireShift": 0.0,
        "BulletSpeed": 7,
        "RecoilForce": 2.6,
        "BulletType": "BombBullet",
        "WeaponType": "BombShot"
      },
      "Orientation": { },
      "Audio": { }
    }
  },

  "SpreadSubCannon": {
    "Components": {
      "Transform": { },
      "ShipSubsystem": { },
      "ShipCannon": {
        "RefireRate": 0.09,
        "RefireShift": 0.0,
        "BulletSpeed": 16,
        "Inaccuracy": 0.08,
        "RecoilForce": 0.3,
        "BulletType": "Bullet",
        "WeaponType": "SpreadShot"
      },
      "Orientation": { },
      "Audio": { }
    }
  },

  "SpreadCannon": {
    "Components": {
      "Transform": { },
      "ShipSubsystem": { },
      "Orientation": { }
    },
    "Children": [
      {
        "Archetype": "SpreadSubCannon"
      },
      {
        "Archetype": "SpreadSubCannon",
        "Components": {
          "Transform": { "rotation": [0,10,0] }
        }
      },
      {
        "Archetype": "SpreadSubCannon",
        "Components": {
          "Transform": { "rotation": [0,-10,0]}
        }
      }
    ]
  }
}
