{
  "Slide1": {
    "Components": {
      "Transform": {},
      "Renderable": {
        "Mesh": "Plane",
        "Material": "Stone"
      }
    }
  },

  "SlideCamera": {
    "Components": {
      "Transform": {},
      "Camera": {}
    }
  }
}
