{
  "SpinneyDooSpasamator": {
    "Name": "SpinneyDooBasic",
    "Components": {
      "Renderable": {
        "Mesh": "AsteroidOne",
        "Material": "Stone",
        "Tint" : [1, 1, 1]
        
      },
      "Transform": {
        "position": [ 0, 5, 0 ],
        "scale": [ 1, 1, 1 ],
        "rotation": [ 0, 0, 0 ]
      },
      "RigidBody": {
        "mass": 1,
        "gravity_magnitude": 0.0
      },
      "WorldWrapper":{

      },
      "Orientation": {
      },
      "Collision_Sphere": {
        "radius": 0.4,
        "collision_id": 4
      },
      "SpinneyDoo": {
        "Speed": 2,
        "SpeedOscillationFactor": 5,
        "DirectionSpeed" : 1,
        "DirectionOscillationFactor" : 1,
        "OscillationRate" : 1
      },
      "DirectionData": {
        "DirectionAngle": 270.0
      },
      "KeepRotating": {
        "RotSpeed": 5.0,
        "RotateClockwise": 0.0
      },
      "Health":{
        "Health": 3,
        "PlayUponDeath" : "Explosion_Big_01"
      },
       "Audio":{
      },
      "EnemyComponent" : {
        "Damage": 1
      }, 
      "Object2D" : {},
      "Actions" : {},
      "DamageFeedback":{
        "FlashColor":[5,5,5,1]
      },
      "ExplodeOnDeath":{
        "ExplosionArchetype":"Explosion1"
      }
    }
  }
  
  "SpinneyDooBasic": {
    "Name": "SpinneyDooBasic",
    "Components": {
      "Renderable": {
        "Mesh": "AsteroidOne",
        "Material": "Stone",
        "Tint" : [1, 1, 1]
        
      },
      "Transform": {
        "position": [ 0, 5, 0 ],
        "scale": [ 1, 1, 1 ],
        "rotation": [ 0, 0, 0 ]
      },
      "RigidBody": {
        "mass": 1,
        "gravity_magnitude": 0.0
      },
      "WorldWrapper":{

      },
      "Orientation": {
      },
      "Collision_Sphere": {
        "radius": 0.4,
        "collision_id": 4 
      },
      "SpinneyDoo": {
        "Speed":                     4,
        "SpeedOscillationFactor":    1,
        "SpeedOscillationRate":      0.0,
        "DirectionSpeed":            0.02,
        "DirectionOscillationFactor":1.0,
        "DirectionOscillationRate":  1.5
      },
      "DirectionData": {
        "DirectionAngle": 270.0
      },
      "KeepRotating": {
        "RotSpeed": 5.0,
        "RotateClockwise": 0.0
      },
      "Health":{
        "Health": 3,
        "PlayUponDeath" : "Explosion_Big_01"
      },
       "Audio":{
      },
      "EnemyComponent" : {
        "Damage": 1
      }, 
      "Object2D" : {},
      "Actions" : {},
      "DamageFeedback":{
        "FlashColor":[5,5,5,1]
      },
      "ExplodeOnDeath":{
        "ExplosionArchetype":"Explosion1"
      }
    }
  }
  
}   

